*heading
double dome staming of plain weave composite (1/4 model)
Using Modified Checherborad model
**
**----------------Input the nodes and element-------------
**
*INCLUDE, INPUT=model_dds_pw.inp
**
** ELEMENT,TYPE=T3D2,ELSET=truss // Shell element
** ELEMENT,TYPE=S4,ELSET=SHELL   // Truss element
** NSET, NSET=XSIDE // bottom side of plate (X axis)
** NSET, NSET=YSIDE // left side of plate (Y axis)
**
**--------------------------------------------------------
**               UNIT: MPa, MM, N
**--------------------------------------------------------
**
**-------------composite sheet (with truss and shell)-----
**
*SHELL SECTION, ELSET=SHELL, MATERIAL=SHELL
0.497
*TRANSVERSE SHEAR STIFFNESS
1
*MATERIAL,NAME=SHELL
*USER MATERIAL,CONSTANTS=0
*DEPVAR
13
*SOLID SECTION, ELSET=TRUSS, MATERIAL=TRUSS
1.256
*MATERIAL, NAME=TRUSS
*USER MATERIAL,CONSTANTS=0
*DEPVAR
13    
**
**------------------------ BENCHMARK REPORT POINTS---------
*SOLID SECTION, ELSET=BR, MATERIAL=RIG
1
**------------------------ RIGID BINDER--------------------
**
*NODE, NSET=REFBINDER
99991, 0., 0., 5.
*RIGID BODY,ELSET=BINDER,REF NODE=REFBINDER
**
**------------------------ RIGID PUNCH ----------------
**
*NODE, NSET=REFPUNCH
99998, 0., 0., 70.
*RIGID BODY,ELSET=PUNCH,REF NODE=REFPUNCH
**
**------------------------- RIGID DIE -----------------
**
*NODE, NSET=REFDIE
99999, 0., 0., -70.
*RIGID BODY,ELSET=DIE,REF NODE=REFDIE
**
**
**-----------MATERIAL FOR PUNCH, DIE, BINDER-----
*MATERIAL, NAME=RIG
*ELASTIC
1.0E10,0.3
**
*SHELL SECTION,ELSET=PUNCH,MATERIAL=RIG
1.
*SHELL SECTION,ELSET=DIE,MATERIAL=RIG
1.
*SHELL SECTION,ELSET=BINDER,MATERIAL=RIG
1.
**---------------CONTACT DEFINITION------------------
** 
**
*SURFACE, NAME=TOP
SHELL,SPOS
*SURFACE, NAME=BOTTOM
SHELL,SNEG
*SURFACE,NAME=PUNCH
PUNCH,SPOS
*SURFACE,NAME=BINDER
BINDER,SPOS
*SURFACE,NAME=DIE
DIE,SPOS
*CONTACT PAIR,INTERACTION=FRI
TOP,PUNCH
*CONTACT PAIR,INTERACTION=FRI
BOTTOM, DIE
*CONTACT PAIR,INTERACTION=FRI
TOP, BINDER
*SURFACE INTERACTION,NAME=FRI
*FRICTION
0.3,
*SURFACE BEHAVIOR, PRESSURE-OVERCLOSURE=EXPONENTIAL
**C0,P0
1.75E-5,4.5
** 
******************************************************
*STEP, NLGEOM, INC=10, UNSYMM=YES
 STEP 1: PUSH THE BLANKHOLDER DOWN BY A PRESCRIBED DISPLACEMENT
*STATIC, stabilize
0.001,0.01
*BOUNDARY
XSIDE,2,2
XSIDE,4,4
XSIDE,6,6
YSIDE,1,1
YSIDE,5,6
REFDIE, 1, 6
REFPUNCH, 1, 6
REFBINDER, 1, 2
REFBINDER, 3, 3, -1.E-5
REFBINDER, 4, 6
*CLOAD
TOPSIDE,2,1
RIGHTSIDE,1,1
*MONITOR,NODE=REFPUNCH,DOF=3
*PRINT,CONTACT=YES
*NODE PRINT,NSET=NSHEET,FREQUENCY=100
COORD,U
RF, 
*EL PRINT,ELSET=SHELL,FREQUENCY=500
S,E
STH, 
*CONTACT PRINT,SLAVE=TOP,MASTER=BINDER,FREQUENCY=500
*CONTACT PRINT,SLAVE=BOTTOM,MASTER=DIE,FREQUENCY=500
*CONTACT PRINT,SLAVE=TOP,MASTER=PUNCH,FREQUENCY=500
*END STEP
******************************************************
*STEP,INC=10,NLGEOM, UNSYMM=YES
 STEP 2: APPLY THE PRESCRIBED FORCE ON THE BLANKHOLDER AND RELEASE THE DISPLACEMENT
*STATIC, stabilize
0.001,0.01
*BOUNDARY,OP=NEW
XSIDE,2,2
XSIDE,4,4
XSIDE,6,6
YSIDE,1,1
YSIDE,5,6
REFPUNCH, 1, 6
REFBINDER, 1, 2
REFBINDER, 4, 6
REFDIE, 1, 6
*CLOAD
REFBINDER,3,-450.
TOPSIDE,2,1
RIGHTSIDE,1,1
*MONITOR,NODE=REFPUNCH,DOF=3
*PRINT,CONTACT=YES
*NODE PRINT,NSET=NSHEET,FREQUENCY=100
COORD,U
RF, 
*EL PRINT,ELSET=SHELL,FREQUENCY=500
S,E
STH, 
*CONTACT PRINT,SLAVE=TOP,MASTER=BINDER,FREQUENCY=500
*CONTACT PRINT,SLAVE=BOTTOM,MASTER=DIE,FREQUENCY=500
*CONTACT PRINT,SLAVE=TOP,MASTER=PUNCH,FREQUENCY=500
*END STEP
******************************************************
*STEP,INC=500,NLGEOM,UNSYMM=YES
 STEP 3: MOVE THE PUNCH DOWN
*STATIC, stabilize
.01,0.35617,1.E-6
*CONTROLS,ANALYSIS=DISCONTINUOUS
*BOUNDARY,OP=NEW
XSIDE,2,2
XSIDE,4,4
XSIDE,6,6
YSIDE,1,1
YSIDE,5,6
REFPUNCH, 1, 2
REFPUNCH, 4, 6
REFBINDER, 1, 2
REFBINDER, 4, 6
REFDIE, 1, 6
REFPUNCH, 3, 3, -60.
*CLOAD
REFBINDER,3,-450.
TOPSIDE,2,1
RIGHTSIDE,1,1
*MONITOR,NODE=REFPUNCH,DOF=3
*PRINT,CONTACT=YES
*NODE PRINT,NSET=NSHEET,FREQUENCY=100
COORD,U
RF, 
*EL PRINT,ELSET=SHELL,FREQUENCY=500
S,E
STH, 
*CONTACT PRINT,SLAVE=TOP,MASTER=BINDER,FREQUENCY=500
*CONTACT PRINT,SLAVE=BOTTOM,MASTER=DIE,FREQUENCY=500
*CONTACT PRINT,SLAVE=TOP,MASTER=PUNCH,FREQUENCY=500
*END STEP